Have a csv file with { separator:

аппаратные средства,die Hardware
архивировать (сжимать),komprimieren
банк данных,die Datenbank
ввод команды,die Befehlseingabe


replace \n with

</b>
        </pair>
        <pair>
            <a>



replace { with
</a>
            <b>


insert to the start:

<pair>
            <a>

remove at the end
        <pair>
            <a>